(TraeAI-5) ~/project_kas [127] $ curl -X GET "http://localhost:3000/api/produk?page=1&limit=2" -H "Authorization: Bearer eyJhbGciOiJIUzI1NiIsInR5cCI6IkpXVCJ9.eyJ1c2VySWQiOiI3ZjZhNzcxNi05MDY4LTExZjAtOGVmZi0wMDE1NWQyNGExNjkiLCJ0ZW5hbnRJZCI6IjdmNjljZTY4LTkwNjgtMTFmMC04ZWZmLTAwMTU1ZDI0YTE2OSIsInRva29JZCI6IjdmNmFmNTJiLTkwNjgtMTFmMC04ZWZmLTAwMTU1ZDI0YTE2OSIsInVzZXJuYW1lIjoiYWRtaW4iLCJyb2xlIjoiYWRtaW4iLCJsZXZlbCI6MiwicGVyYW5JZCI6IjU1MGU4NDAwLWUyOWItNDFkNC1hNzE2LTQ0NjY1NTQ0MDAwMiIsImlhdCI6MTc1ODA3MDU1NSwiZXhwIjoxNzU4MTU2OTU1fQ.YcI49YZD1j2YceVdJkycQaCGInXQROWqE-3MIbcmpuk" -H "Content-Type: application/json"
{"success":true,"data":[{"id":"ed32fed0-90fc-11f0-8812-00155d24aae3","kode":"PRD002","nama":"Produk Test Kedua","deskripsi":null,"satuan":"pcs","harga_beli":"5000.00","harga_jual":"7500.00","margin_persen":"0.00","stok_minimum":0,"is_aktif":1,"is_dijual_online":0,"kategori_nama":"Makanan","brand_nama":"Generic","supplier_nama":"Supplier Umum","inventaris":[{"stok_tersedia":50,"stok_reserved":0,"harga_jual_toko":"7500.00","stok_minimum_toko":0,"lokasi_rak":null,"terakhir_update":"2025-09-14 06:54:23"}]},{"id":"f0beb298-90fc-11f0-8812-00155d24aae3","kode":"PRD003","nama":"Produk Test Ketiga","deskripsi":null,"satuan":"botol","harga_beli":"3000.00","harga_jual":"5000.00","margin_persen":"0.00","stok_minimum":0,"is_aktif":1,"is_dijual_online":0,"kategori_nama":"Minuman","brand_nama":"House Brand","supplier_nama":"Supplier Umum","inventaris":[{"stok_tersedia":30,"stok_reserved":0,"harga_jual_toko":"5000.00","stok_minimum_toko":0,"lokasi_rak":null,"terakhir_update":"2025-09-14 06:54:23"}]}],"pagination":{"total":3,"page":1,"totalPages":2,"limit":2}}
(TraeAI-5) ~/project_kas [0] $ 